…
## Examples

``` r
library(cranology)
```

### Datasets

All packages ever available on CRAN.

``` r
cran_packages_history
#> # A tibble: 37,823 × 10
#>    file_name    date                time  size  package_name last_archived      
#>    <chr>        <dttm>              <chr> <chr> <chr>        <dttm>             
#>  1 A3/          2015-08-16 21:05:00 21:05 -     A3           2015-08-16 21:05:00
#>  2 aaMI/        2010-07-30 12:17:00 12:17 -     aaMI         2010-07-30 12:17:00
#>  3 aaSEA/       2022-06-21 05:12:00 05:12 -     aaSEA        2022-06-21 05:12:00
#>  4 aba/         2022-03-27 06:29:00 06:29 -     aba          2022-03-27 06:29:00
#>  5 abbyyR/      2019-06-25 04:30:00 04:30 -     abbyyR       2019-06-25 04:30:00
#>  6 abc/         2022-05-19 07:20:00 07:20 -     abc          2022-05-19 07:20:00
#>  7 ABCanalysis/ 2017-03-13 13:31:00 13:31 -     ABCanalysis  2017-03-13 13:31:00
#>  8 abcdeFBA/    2022-03-07 06:20:00 06:20 -     abcdeFBA     2022-03-07 06:20:00
#>  9 ABCExtremes/ 2015-06-19 11:26:00 11:26 -     ABCExtremes  2015-06-19 11:26:00
#> 10 abclass/     2022-05-28 18:10:00 18:10 -     abclass      2022-05-28 18:10:00
#> # … with 37,813 more rows, and 4 more variables: archive <lgl>,
#> #   first_date <dttm>, n_versions <int>, last_modified <dttm>
```

The evolution of the number of packages on CRAN since its beginning.

``` r
cran_monthly_package_number
#> # A tibble: 297 × 2
#>    date       number_packages
#>    <date>               <dbl>
#>  1 1997-10-08               1
#>  2 1997-11-08               1
#>  3 1997-12-08               1
#>  4 1998-01-08               2
#>  5 1998-02-08               2
#>  6 1998-03-08               3
#>  7 1998-04-08               5
#>  8 1998-05-08               6
#>  9 1998-06-08               6
#> 10 1998-07-08               7
#> # … with 287 more rows
```
…
